Lab 5
…
GLC$`State Code` <- as.numeric(GLC$`State Code`)
GLCUnique <- GLC %>% select('State Name','State Code') %>% distinct()
GLCUnique

## # A tibble: 51 x 2
##    `State Name`         `State Code`
##    <chr>                       <dbl>
##  1 ALABAMA                         1
##  2 ALASKA                          2
##  3 ARIZONA                         4
##  4 ARKANSAS                        5
##  5 CALIFORNIA                      6
##  6 COLORADO                        8
##  7 CONNECTICUT                     9
##  8 DELAWARE                       10
##  9 DISTRICT OF COLUMBIA           11
## 10 FLORIDA                        12
## # ... with 41 more rows
…
