team3.utf8
…
GLC$`State Code` <- as.numeric(GLC$`State Code`)

danger <- left_join(mostDang, GLC, by=c("STATE"="State Code"))%>% select(STATE, MAKE, count, `State Name`)%>% group_by(STATE, `State Name`) %>% distinct()
danger$`State Name` <- tolower(danger$`State Name`)
danger

## # A tibble: 52 x 4
## # Groups:   STATE, State Name [51]
##    STATE  MAKE count `State Name`        
##    <dbl> <int> <int> <chr>               
##  1     1    20   293 alabama             
##  2     2    20    29 alaska              
##  3     4    12   305 arizona             
##  4     5    20   171 arkansas            
##  5     6    49  1079 california          
##  6     8    12   176 colorado            
##  7     9    37    63 connecticut         
##  8    10    12    29 delaware            
##  9    10    37    29 delaware            
## 10    11    37    13 district of columbia
## # ... with 42 more rows
…
## # A tibble: 6 x 3
##   region        long   lat
##   <chr>        <dbl> <dbl>
## 1 alabama      -86.9  31.7
## 2 arizona     -113.   34.5
## 3 arkansas     -91.3  34.6
## 4 california  -121.   36.7
## 5 colorado    -105.   38.6
## 6 connecticut  -72.7  41.4

dangerMap <- danger %>% left_join(states2, by=c("State Name"="region"))%>% select(STATE, MAKE, count, `State Name`,long, lat)%>%distinct()

dangerMap

## # A tibble: 52 x 6
## # Groups:   STATE, State Name [51]
##    STATE  MAKE count `State Name`           long   lat
##    <dbl> <int> <int> <chr>                 <dbl> <dbl>
##  1     1    20   293 alabama               -86.9  31.7
##  2     2    20    29 alaska                 NA    NA  
##  3     4    12   305 arizona              -113.   34.5
##  4     5    20   171 arkansas              -91.3  34.6
##  5     6    49  1079 california           -121.   36.7
##  6     8    12   176 colorado             -105.   38.6
##  7     9    37    63 connecticut           -72.7  41.4
##  8    10    12    29 delaware              -75.4  39.1
##  9    10    37    29 delaware              -75.4  39.1
## 10    11    37    13 district of columbia  -77.1  38.9
## # ... with 42 more rows
…
